\select@language {english}
\beamer@sectionintoc {1}{Start}{2}{0}{1}
\beamer@sectionintoc {2}{Setup}{6}{0}{2}
\beamer@sectionintoc {3}{Studied Properties}{7}{0}{3}
\beamer@sectionintoc {4}{Finish}{28}{0}{4}
